[
{"link": "../../pages/contents.html","label": "Содержание"},
{"link": "../../pages/webdev/about.html","label": "О сайте «Английский без регистрации»"},
{"link": "../../pages/more/more_newsletter_can_get_english_for_free.html","label": "Еще! - Бесплатный английский в сети"},
{"link": "../../pages/more/more_products.html","label": "Еще! - Скачать e-book, приложение, заставку"},
{"link": "../../pages/more/more_irregular_verbs.html","label": "Еще! - Неправильные глаголы"},
{"link": "../../pages/aids/aids_topics.html","label": "Пособия - Топики на английском"},
{"link": "../../pages/aids/aids_most_commonly_used_idioms.html","label": "Пособия - Most Commonly Used Idioms"},
{"link": "../../pages/aids/aids_teaching_pronunciation.html","label": "Пособия - Teaching Pronunciation"},
{"link": "../../pages/articles/articles_reading_rules_utf.html","label": "Статьи - Правила чтения"},
{"link": "../../pages/grammar/grammar_all_whole_entire.html","label": "Грамматика - All / the whole / the entire"},
{"link": "../../pages/grammar/grammar_alone_by_myself_and_on_my_own.html","label": "Грамматика - Alone / by myself / on my own"},
{"link": "../../pages/grammar/grammar_attributes_order.html","label": "Грамматика - Порядок определений"},
{"link": "../../pages/grammar/grammar_can_could_be_able_to.html","label": "Грамматика - Can / could / be able to"},
{"link": "../../pages/grammar/grammar_capital_letters.html","label": "Грамматика - С большой или с маленькой"},
{"link": "../../pages/grammar/grammar_comma_before_who_which_that.html","label": "Грамматика - Who / which / that и запятые"},
{"link": "../../pages/grammar/grammar_common_and_proper_nouns.html","label": "Грамматика - Нарицательное / собственное"},
{"link": "../../pages/grammar/grammar_conditionals.html","label": "Грамматика - Согласование времен"},
{"link": "../../pages/grammar/grammar_degrees_of_comparison.html","label": "Грамматика - Степени сравнения"},
{"link": "../../pages/grammar/grammar_ex_former.html","label": "Грамматика - «Ex-» и «former», или Осторожно: морпехи"},
{"link": "../../pages/grammar/grammar_foreign_words.html","label": "Грамматика - Заимствованные слова"},
{"link": "../../pages/grammar/grammar_glossary_of_grammatical_terms.html","label": "Грамматика - Glossary of Grammatical Terms"},
{"link": "../../pages/grammar/grammar_grammar_girl_s_quick_and_dirty_grammar_at_a_glance.html","label": "Грамматика - Quick and Dirty Grammar"},
{"link": "../../pages/grammar/grammar_in_at_on.html","label": "Грамматика - In / at / on"},
{"link": "../../pages/grammar/grammar_in_hospital_at_work.html","label": "Грамматика - In hospital / at work etc."},
{"link": "../../pages/grammar/grammar_irregular_verbs.html","label": "Грамматика - Неправильные глаголы (таблица)"},
{"link": "../../pages/grammar/grammar_may_might_be_allowed_to.html","label": "Грамматика - May / might / be allowed to"},
{"link": "../../pages/grammar/grammar_modal_verbs.html","label": "Грамматика - Модальные глаголы"},
{"link": "../../pages/grammar/grammar_much_many_little_few.html","label": "Грамматика - Much / many / little / few"},
{"link": "../../pages/grammar/grammar_or_nor_neither.html","label": "Грамматика - Or / nor / neither"},
{"link": "../../pages/grammar/grammar_phrasal_verbs.html","label": "Грамматика - Фразовые глаголы"},
{"link": "../../pages/grammar/grammar_reported_speech.html","label": "Грамматика - Косвенная речь"},
{"link": "../../pages/grammar/grammar_saying_numbers.html","label": "Грамматика - Числа по-английски"},
{"link": "../../pages/grammar/grammar_stative_and_action_verbs.html","label": "Грамматика - Неконтиниусные глаголы"},
{"link": "../../pages/grammar/grammar_the_listing_comma.html","label": "Грамматика - Серийная запятая"},
{"link": "../../pages/grammar/grammar_too_enough_so_such.html","label": "Грамматика - Too / enough и so / such"},
{"link": "../../pages/grammar/grammar_to_me_for_me.html","label": "Грамматика - To me / for me, или Надуманная проблема"},
{"link": "../../pages/grammar/grammar_translating_participles.html","label": "Грамматика - Перевод причастий и деепричастий"},
{"link": "../../pages/grammar/grammar_usage_of_articles_a_the.html","label": "Грамматика - Артикли a / an и the"},
{"link": "../../pages/grammar/grammar_usage_of_hyphens.html","label": "Грамматика - Расстановка дефисов"},
{"link": "../../pages/grammar/grammar_usage_of_tenses.html","label": "Грамматика - Употребление времен"},
{"link": "../../pages/grammar/grammar_when_must_means_probably.html","label": "Грамматика - Когда must = «должно быть»"},
{"link": "../../pages/grammar/grammar_word_order.html","label": "Грамматика - Порядок слов в предложении"},
{"link": "../../pages/tests/tests_grammar_tests_with_answers.html","label": "Тесты - Тесты по грамматике"},
{"link": "../../pages/tests/tests_gia_ege_letter_sample.html","label": "Тесты - ГИА / ЕГЭ: Задания 33, 39, 40"},
{"link": "../../pages/tests/tests_ege_essay_sample.html","label": "Тесты - ЕГЭ: Задание 40"},
{"link": "../../pages/tests/tests_gia_english_test_sample.html","label": "Тесты - Демо-вариант ГИА-9 (ОГЭ) АЯ (ПЧ)"},
{"link": "../../pages/tests/tests_gia_english_test_sample_speaking.html","label": "Тесты - Демо-вариант ГИА-9 (ОГЭ) АЯ (УЧ)"},
{"link": "../../pages/tests/tests_ege_english_test_sample.html","label": "Тесты - Демо-вариант ЕГЭ-11 АЯ (ПЧ)"},
{"link": "../../pages/tests/tests_ege_english_test_sample_speaking.html","label": "Тесты - Демо-вариант ЕГЭ-11 АЯ (УЧ)"},
{"link": "../../pages/tests/tests_macmillan_practice_tests_for_the_russian_state_exam_2nd_test_20.html","label": "Тесты - Macmillan Practice Tests. Test 20"},
{"link": "../../pages/tests/tests_english_allrussian_olympiad_regional_stage_2013.html","label": "Тесты - XIV Олимпиада по английскому"},
{"link": "../../pages/tests/tests_languagelink_online_test.html","label": "Тесты - Уровневый тест"},
{"link": "../../pages/tests/tests_common_mistakes_test_advanced.html","label": "Тесты - Common Mistakes Test Advanced"},
{"link": "../../pages/tests/tests_essential_grammar_in_use_level_test.html","label": "Тесты - Essential Grammar in Use Level Test"},
{"link": "../../pages/tests/tests_english_grammar_in_use_level_test.html","label": "Тесты - English Grammar in Use Level Test"},
{"link": "../../pages/tests/tests_advanced_grammar_in_use_level_test.html","label": "Тесты - Advanced Grammar in Use Level Test"},
{"link": "../../pages/tests/tests_macmillan_practice_tests_for_the_russian_state_exam_keys.html","label": "Тесты - Ответы к Macmillan Practice Tests (1-е изд.)"},
{"link": "../../pages/tests/tests_macmillan_practice_tests_for_the_russian_state_exam_keys_2nd.html","label": "Тесты - Ответы к Macmillan Practice Tests (2-е изд.)"},
{"link": "../../pages/tests/tests_previous_ege_analysis.html","label": "Тесты - ЕГЭ 2015: разбор ошибок"},
{"link": "../../pages/reading/reading_country_language_person_capital.html","label": "Чтение - Country, Language, People, Person, Capital"},
{"link": "../../pages/reading/reading_the_man_with_the_scar.html","label": "Чтение - The Man with the Scar"},
{"link": "../../pages/reading/reading_russia_ukraine_war_conflict_vocabulary.html","label": "Чтение - Russia-Ukraine War Conflict"},
{"link": "../../pages/transcripts/transcripts_linguaspectrum_essential_british_english_expressions.html","label": "Транскрипты - Essential British English Expressions"},
{"link": "../../pages/transcripts/transcripts_video_vocab_transcripts.html","label": "Транскрипты - English Vocabulary for Business"},
{"link": "../../pages/transcripts/transcripts_linguaspectrum_spell.html","label": "Транскрипты - 44 Most Often Misspelled Words"},
{"link": "../../pages/transcripts/transcripts_episode_stop_swinging_the_bat.html","label": "Транскрипты - Stop swinging the bat"},
{"link": "../../pages/transcripts/transcripts_episode_cousins_question_mark.html","label": "Транскрипты - Cousins?"},
{"link": "../../pages/transcripts/transcripts_episode_all_train_compartments_smell_vaguely_of_shit.html","label": "Транскрипты - All train compartments smell vaguely of shit"}
]
